…
**1. To the `gapminder` dataset, add the "areas" and "hemisphere" variable using the `extra_infor` tibble.**

``` r
gapminder%>%
  left_join(extra_infor, by = "continent")
```

    ## Warning: Column `continent` joining factors with different levels, coercing
    ## to character vector

    ## # A tibble: 1,704 x 8
    ##        country continent  year lifeExp      pop gdpPercap    areas
    ##         <fctr>     <chr> <int>   <dbl>    <int>     <dbl>    <dbl>
    ##  1 Afghanistan      Asia  1952  28.801  8425333  779.4453 17139445
    ##  2 Afghanistan      Asia  1957  30.332  9240934  820.8530 17139445
    ##  3 Afghanistan      Asia  1962  31.997 10267083  853.1007 17139445
    ##  4 Afghanistan      Asia  1967  34.020 11537966  836.1971 17139445
    ##  5 Afghanistan      Asia  1972  36.088 13079460  739.9811 17139445
    ##  6 Afghanistan      Asia  1977  38.438 14880372  786.1134 17139445
    ##  7 Afghanistan      Asia  1982  39.854 12881816  978.0114 17139445
    ##  8 Afghanistan      Asia  1987  40.822 13867957  852.3959 17139445
    ##  9 Afghanistan      Asia  1992  41.674 16317921  649.3414 17139445
    ## 10 Afghanistan      Asia  1997  41.763 22227415  635.3414 17139445
    ## # ... with 1,694 more rows, and 1 more variables: hemisphere <fctr>

**2. To the `gapminder` dataset, add the "areas" and "hemisphere" variable using the `extra_infor` tibble, but only keeping obervations for which areas and hemisphere are available.**

``` r
gapminder%>%
  inner_join(extra_infor, by = "continent")
```

    ## Warning: Column `continent` joining factors with different levels, coercing
    ## to character vector

    ## # A tibble: 780 x 8
    ##        country continent  year lifeExp      pop gdpPercap    areas
    ##         <fctr>     <chr> <int>   <dbl>    <int>     <dbl>    <dbl>
    ##  1 Afghanistan      Asia  1952  28.801  8425333  779.4453 17139445
    ##  2 Afghanistan      Asia  1957  30.332  9240934  820.8530 17139445
    ##  3 Afghanistan      Asia  1962  31.997 10267083  853.1007 17139445
    ##  4 Afghanistan      Asia  1967  34.020 11537966  836.1971 17139445
    ##  5 Afghanistan      Asia  1972  36.088 13079460  739.9811 17139445
    ##  6 Afghanistan      Asia  1977  38.438 14880372  786.1134 17139445
    ##  7 Afghanistan      Asia  1982  39.854 12881816  978.0114 17139445
    ##  8 Afghanistan      Asia  1987  40.822 13867957  852.3959 17139445
    ##  9 Afghanistan      Asia  1992  41.674 16317921  649.3414 17139445
    ## 10 Afghanistan      Asia  1997  41.763 22227415  635.3414 17139445
    ## # ... with 770 more rows, and 1 more variables: hemisphere <fctr>
…
**5. Construct a tibble that joins `gapminder` and `extra_infor`, so that all rows found in each original tibble are also found in the final tibble.**

``` r
full_join(gapminder,extra_infor, by = "continent")
```

    ## Warning: Column `continent` joining factors with different levels, coercing
    ## to character vector

    ## # A tibble: 1,705 x 8
    ##        country continent  year lifeExp      pop gdpPercap    areas
    ##         <fctr>     <chr> <int>   <dbl>    <int>     <dbl>    <dbl>
    ##  1 Afghanistan      Asia  1952  28.801  8425333  779.4453 17139445
    ##  2 Afghanistan      Asia  1957  30.332  9240934  820.8530 17139445
    ##  3 Afghanistan      Asia  1962  31.997 10267083  853.1007 17139445
    ##  4 Afghanistan      Asia  1967  34.020 11537966  836.1971 17139445
    ##  5 Afghanistan      Asia  1972  36.088 13079460  739.9811 17139445
    ##  6 Afghanistan      Asia  1977  38.438 14880372  786.1134 17139445
    ##  7 Afghanistan      Asia  1982  39.854 12881816  978.0114 17139445
    ##  8 Afghanistan      Asia  1987  40.822 13867957  852.3959 17139445
    ##  9 Afghanistan      Asia  1992  41.674 16317921  649.3414 17139445
    ## 10 Afghanistan      Asia  1997  41.763 22227415  635.3414 17139445
    ## # ... with 1,695 more rows, and 1 more variables: hemisphere <fctr>

**6. Subset the `gapminder` dataset to have continents that are only found in the `extra_infor` data frame.**

``` r
gapminder%>%
  semi_join(extra_infor)
```

    ## Joining, by = "continent"

    ## Warning: Column `continent` joining factors with different levels, coercing
    ## to character vector

    ## # A tibble: 780 x 6
    ##        country continent  year lifeExp      pop gdpPercap
    ##         <fctr>    <fctr> <int>   <dbl>    <int>     <dbl>
    ##  1 Afghanistan      Asia  1952  28.801  8425333  779.4453
    ##  2 Afghanistan      Asia  1957  30.332  9240934  820.8530
    ##  3 Afghanistan      Asia  1962  31.997 10267083  853.1007
    ##  4 Afghanistan      Asia  1967  34.020 11537966  836.1971
    ##  5 Afghanistan      Asia  1972  36.088 13079460  739.9811
    ##  6 Afghanistan      Asia  1977  38.438 14880372  786.1134
    ##  7 Afghanistan      Asia  1982  39.854 12881816  978.0114
    ##  8 Afghanistan      Asia  1987  40.822 13867957  852.3959
    ##  9 Afghanistan      Asia  1992  41.674 16317921  649.3414
    ## 10 Afghanistan      Asia  1997  41.763 22227415  635.3414
    ## # ... with 770 more rows

**7. Subset the `gapminder` dataset to have continents that are *not* found in the `extra_infor` data frame.**

``` r
gapminder%>%
  anti_join(extra_infor)
```

    ## Joining, by = "continent"

    ## Warning: Column `continent` joining factors with different levels, coercing
    ## to character vector

    ## # A tibble: 924 x 6
    ##    country continent  year lifeExp      pop gdpPercap
    ##     <fctr>    <fctr> <int>   <dbl>    <int>     <dbl>
    ##  1 Algeria    Africa  1952  43.077  9279525  2449.008
    ##  2 Algeria    Africa  1957  45.685 10270856  3013.976
    ##  3 Algeria    Africa  1962  48.303 11000948  2550.817
    ##  4 Algeria    Africa  1967  51.407 12760499  3246.992
    ##  5 Algeria    Africa  1972  54.518 14760787  4182.664
    ##  6 Algeria    Africa  1977  58.014 17152804  4910.417
    ##  7 Algeria    Africa  1982  61.368 20033753  5745.160
    ##  8 Algeria    Africa  1987  65.799 23254956  5681.359
    ##  9 Algeria    Africa  1992  67.744 26298373  5023.217
    ## 10 Algeria    Africa  1997  69.152 29072015  4797.295
    ## # ... with 914 more rows
