hw 02
…
## Conflicts with tidy packages ----------------------------------------------

## filter(): dplyr, stats
## lag():    dplyr, stats

library(knitr)
library(kableExtra)
library(ggplot2)
library(forcats)

2. Explore the gapminder object:

gapminder

## # A tibble: 1,704 x 6
##        country continent  year lifeExp      pop gdpPercap
##         <fctr>    <fctr> <int>   <dbl>    <int>     <dbl>
##  1 Afghanistan      Asia  1952  28.801  8425333  779.4453
##  2 Afghanistan      Asia  1957  30.332  9240934  820.8530
##  3 Afghanistan      Asia  1962  31.997 10267083  853.1007
##  4 Afghanistan      Asia  1967  34.020 11537966  836.1971
##  5 Afghanistan      Asia  1972  36.088 13079460  739.9811
##  6 Afghanistan      Asia  1977  38.438 14880372  786.1134
##  7 Afghanistan      Asia  1982  39.854 12881816  978.0114
##  8 Afghanistan      Asia  1987  40.822 13867957  852.3959
##  9 Afghanistan      Asia  1992  41.674 16317921  649.3414
## 10 Afghanistan      Asia  1997  41.763 22227415  635.3414
## # ... with 1,694 more rows
…
5. Use filter(), select() and %>%

Use filter() to create data subsets of all entries occuring from 1980 to 1999.

filter(gapminder, year <= 1999, year >= 1980)

## # A tibble: 568 x 6
##        country continent  year lifeExp      pop gdpPercap
##         <fctr>    <fctr> <int>   <dbl>    <int>     <dbl>
##  1 Afghanistan      Asia  1982  39.854 12881816  978.0114
##  2 Afghanistan      Asia  1987  40.822 13867957  852.3959
##  3 Afghanistan      Asia  1992  41.674 16317921  649.3414
##  4 Afghanistan      Asia  1997  41.763 22227415  635.3414
##  5     Albania    Europe  1982  70.420  2780097 3630.8807
##  6     Albania    Europe  1987  72.000  3075321 3738.9327
##  7     Albania    Europe  1992  71.581  3326498 2497.4379
##  8     Albania    Europe  1997  72.950  3428038 3193.0546
##  9     Algeria    Africa  1982  61.368 20033753 5745.1602
## 10     Algeria    Africa  1987  65.799 23254956 5681.3585
## # ... with 558 more rows
…
The analyst did not succeed, this only returns half of the data. Because the analyst is actually trying to match countries with c(Rwanda, Afghanistan), so this code compare the fist country with Rwanda, second with Afghanistan, then third with Rwanda, forth with Afghanistan, and so on. Thus this code will lose half of the countries named Rwanda and Afghanistan.

The followings are correct ways to do this.

filter(gapminder, (country=="Rwanda"|country=="Afghanistan"))

## # A tibble: 24 x 6
##        country continent  year lifeExp      pop gdpPercap
##         <fctr>    <fctr> <int>   <dbl>    <int>     <dbl>
##  1 Afghanistan      Asia  1952  28.801  8425333  779.4453
##  2 Afghanistan      Asia  1957  30.332  9240934  820.8530
##  3 Afghanistan      Asia  1962  31.997 10267083  853.1007
##  4 Afghanistan      Asia  1967  34.020 11537966  836.1971
##  5 Afghanistan      Asia  1972  36.088 13079460  739.9811
##  6 Afghanistan      Asia  1977  38.438 14880372  786.1134
##  7 Afghanistan      Asia  1982  39.854 12881816  978.0114
##  8 Afghanistan      Asia  1987  40.822 13867957  852.3959
##  9 Afghanistan      Asia  1992  41.674 16317921  649.3414
## 10 Afghanistan      Asia  1997  41.763 22227415  635.3414
## # ... with 14 more rows

filter(gapminder, country %in% c("Rwanda", "Afghanistan"))

## # A tibble: 24 x 6
##        country continent  year lifeExp      pop gdpPercap
##         <fctr>    <fctr> <int>   <dbl>    <int>     <dbl>
##  1 Afghanistan      Asia  1952  28.801  8425333  779.4453
##  2 Afghanistan      Asia  1957  30.332  9240934  820.8530
##  3 Afghanistan      Asia  1962  31.997 10267083  853.1007
##  4 Afghanistan      Asia  1967  34.020 11537966  836.1971
##  5 Afghanistan      Asia  1972  36.088 13079460  739.9811
##  6 Afghanistan      Asia  1977  38.438 14880372  786.1134
##  7 Afghanistan      Asia  1982  39.854 12881816  978.0114
##  8 Afghanistan      Asia  1987  40.822 13867957  852.3959
##  9 Afghanistan      Asia  1992  41.674 16317921  649.3414
## 10 Afghanistan      Asia  1997  41.763 22227415  635.3414
## # ... with 14 more rows
…
2007

81.235

20434176

34435.37

Use more of the dplyr functions for operating on a single table.

1. Use arrange() to order the data frame by year, then descending by population.

arrange(gapminder, year,desc(pop))

## # A tibble: 1,704 x 6
##           country continent  year lifeExp       pop  gdpPercap
##            <fctr>    <fctr> <int>   <dbl>     <int>      <dbl>
##  1          China      Asia  1952  44.000 556263527   400.4486
##  2          India      Asia  1952  37.373 372000000   546.5657
##  3  United States  Americas  1952  68.440 157553000 13990.4821
##  4          Japan      Asia  1952  63.030  86459025  3216.9563
##  5      Indonesia      Asia  1952  37.468  82052000   749.6817
##  6        Germany    Europe  1952  67.500  69145952  7144.1144
##  7         Brazil  Americas  1952  50.917  56602560  2108.9444
##  8 United Kingdom    Europe  1952  69.180  50430000  9979.5085
##  9          Italy    Europe  1952  65.940  47666000  4931.4042
## 10     Bangladesh      Asia  1952  37.484  46886859   684.2442
## # ... with 1,694 more rows

2. Use mutate() to get GDP by multiplying GPD per capita with population.

mutate(gapminder, gdp = gdpPercap * pop)

## # A tibble: 1,704 x 7
##        country continent  year lifeExp      pop gdpPercap         gdp
##         <fctr>    <fctr> <int>   <dbl>    <int>     <dbl>       <dbl>
##  1 Afghanistan      Asia  1952  28.801  8425333  779.4453  6567086330
##  2 Afghanistan      Asia  1957  30.332  9240934  820.8530  7585448670
##  3 Afghanistan      Asia  1962  31.997 10267083  853.1007  8758855797
##  4 Afghanistan      Asia  1967  34.020 11537966  836.1971  9648014150
##  5 Afghanistan      Asia  1972  36.088 13079460  739.9811  9678553274
##  6 Afghanistan      Asia  1977  38.438 14880372  786.1134 11697659231
##  7 Afghanistan      Asia  1982  39.854 12881816  978.0114 12598563401
##  8 Afghanistan      Asia  1987  40.822 13867957  852.3959 11820990309
##  9 Afghanistan      Asia  1992  41.674 16317921  649.3414 10595901589
## 10 Afghanistan      Asia  1997  41.763 22227415  635.3414 14121995875
## # ... with 1,694 more rows
…
