…
``` r
le_vs_yr <- function(df) {
  MASS::rlm(lifeExp ~ I(year - 1950), data = df)
}
```

**(3)** Use `map()` inside `mutate()` to store the model inside `gap_nested` in another two list-columns.

``` r
(gap_nested <- gap_nested %>% 
   mutate(fit = map(data, le_vs_yr)))
```

    ## # A tibble: 142 x 4
    ##    continent     country              data       fit
    ##       <fctr>      <fctr>            <list>    <list>
    ##  1      Asia Afghanistan <tibble [12 x 4]> <S3: rlm>
    ##  2    Europe     Albania <tibble [12 x 4]> <S3: rlm>
    ##  3    Africa     Algeria <tibble [12 x 4]> <S3: rlm>
    ##  4    Africa      Angola <tibble [12 x 4]> <S3: rlm>
    ##  5  Americas   Argentina <tibble [12 x 4]> <S3: rlm>
    ##  6   Oceania   Australia <tibble [12 x 4]> <S3: rlm>
    ##  7    Europe     Austria <tibble [12 x 4]> <S3: rlm>
    ##  8      Asia     Bahrain <tibble [12 x 4]> <S3: rlm>
    ##  9      Asia  Bangladesh <tibble [12 x 4]> <S3: rlm>
    ## 10    Europe     Belgium <tibble [12 x 4]> <S3: rlm>
    ## # ... with 132 more rows

**(4)** Apply `tidy()` to the model for each country with the same `map()` inside `mutate()` strategy as above.

``` r
(gap_nested <- gap_nested %>% 
  mutate(tidy = map(fit, tidy)))
```

    ## # A tibble: 142 x 5
    ##    continent     country              data       fit                 tidy
    ##       <fctr>      <fctr>            <list>    <list>               <list>
    ##  1      Asia Afghanistan <tibble [12 x 4]> <S3: rlm> <data.frame [2 x 4]>
    ##  2    Europe     Albania <tibble [12 x 4]> <S3: rlm> <data.frame [2 x 4]>
    ##  3    Africa     Algeria <tibble [12 x 4]> <S3: rlm> <data.frame [2 x 4]>
    ##  4    Africa      Angola <tibble [12 x 4]> <S3: rlm> <data.frame [2 x 4]>
    ##  5  Americas   Argentina <tibble [12 x 4]> <S3: rlm> <data.frame [2 x 4]>
    ##  6   Oceania   Australia <tibble [12 x 4]> <S3: rlm> <data.frame [2 x 4]>
    ##  7    Europe     Austria <tibble [12 x 4]> <S3: rlm> <data.frame [2 x 4]>
    ##  8      Asia     Bahrain <tibble [12 x 4]> <S3: rlm> <data.frame [2 x 4]>
    ##  9      Asia  Bangladesh <tibble [12 x 4]> <S3: rlm> <data.frame [2 x 4]>
    ## 10    Europe     Belgium <tibble [12 x 4]> <S3: rlm> <data.frame [2 x 4]>
    ## # ... with 132 more rows

**Note:** The function `tidy()`: constructs a data frame that summarizes the model's statistical findings.

**(5)** Simplify, preferably back to a normal tibble using `unnest()`.

``` r
(gap_coefs <- gap_nested %>% 
   dplyr::select(continent, country, tidy) %>% 
   unnest(tidy))
```

    ## # A tibble: 284 x 6
    ##    continent     country           term   estimate   std.error  statistic
    ##       <fctr>      <fctr>          <chr>      <dbl>       <dbl>      <dbl>
    ##  1      Asia Afghanistan    (Intercept) 29.3566375 0.698981278  41.999176
    ##  2      Asia Afghanistan I(year - 1950)  0.2753287 0.020450934  13.462890
    ##  3    Europe     Albania    (Intercept) 59.3094922 0.984386114  60.250232
    ##  4    Europe     Albania I(year - 1950)  0.3160949 0.028801365  10.974996
    ##  5    Africa     Algeria    (Intercept) 42.0063399 0.632656377  66.396770
    ##  6    Africa     Algeria I(year - 1950)  0.5758313 0.018510386  31.108554
    ##  7    Africa      Angola    (Intercept) 31.7168633 0.990517454  32.020499
    ##  8    Africa      Angola I(year - 1950)  0.2090313 0.028980757   7.212762
    ##  9  Americas   Argentina    (Intercept) 62.1896511 0.150434047 413.401437
    ## 10  Americas   Argentina I(year - 1950)  0.2327136 0.004401429  52.872289
    ## # ... with 274 more rows

**(6)** Recode the variable corresponding to “intercept” vs “slope”.

``` r
(gap_coefs <- gap_coefs %>%
   mutate(term = recode(term,
                        `(Intercept)` = "intercept",
                        `I(year - 1950)` = "slope")))
```

    ## # A tibble: 284 x 6
    ##    continent     country      term   estimate   std.error  statistic
    ##       <fctr>      <fctr>     <chr>      <dbl>       <dbl>      <dbl>
    ##  1      Asia Afghanistan intercept 29.3566375 0.698981278  41.999176
    ##  2      Asia Afghanistan     slope  0.2753287 0.020450934  13.462890
    ##  3    Europe     Albania intercept 59.3094922 0.984386114  60.250232
    ##  4    Europe     Albania     slope  0.3160949 0.028801365  10.974996
    ##  5    Africa     Algeria intercept 42.0063399 0.632656377  66.396770
    ##  6    Africa     Algeria     slope  0.5758313 0.018510386  31.108554
    ##  7    Africa      Angola intercept 31.7168633 0.990517454  32.020499
    ##  8    Africa      Angola     slope  0.2090313 0.028980757   7.212762
    ##  9  Americas   Argentina intercept 62.1896511 0.150434047 413.401437
    ## 10  Americas   Argentina     slope  0.2327136 0.004401429  52.872289
    ## # ... with 274 more rows

**Note:** The intercepts here correspond to expected life expectancy in 1950.

**(7)** Reshape `gap_ests` for numerical summarization and visualization.

``` r
(gap_ests <- gap_coefs %>% 
   dplyr::select(continent:estimate) %>% 
   spread(key = term, value = estimate))
```

    ## # A tibble: 142 x 4
    ##    continent                  country intercept      slope
    ##  *    <fctr>                   <fctr>     <dbl>      <dbl>
    ##  1    Africa                  Algeria  42.00634 0.57583135
    ##  2    Africa                   Angola  31.71686 0.20903132
    ##  3    Africa                    Benin  38.92005 0.33423287
    ##  4    Africa                 Botswana  52.80778 0.06066853
    ##  5    Africa             Burkina Faso  33.95674 0.36397483
    ##  6    Africa                  Burundi  40.27037 0.15413427
    ##  7    Africa                 Cameroon  40.74416 0.24965733
    ##  8    Africa Central African Republic  38.44170 0.18390559
    ##  9    Africa                     Chad  39.26504 0.25527161
    ## 10    Africa                  Comoros  39.08187 0.45117882
    ## # ... with 132 more rows
…
