…
[Plot of life expectancy over time on different continents](/Users/hannahdong/Desktop/Stat545/STAT545-hw-Dong-Xinzhe/hw05/Plot%20of%20life%20expectancy%20over%20time%20on%20different%20continents)

But I want to do more!
----------------------

Pick a handful of countries, each of which you can associate with a stereotypical food (or any other non-controversial thing … sport? hobby? type of music, art or dance? animal? landscape feature?). Create an excerpt of the Gapminder data, filtered to just these countries.

Create a new factor – you pick the name! – by mapping the existing country factor levels to the new levels. Examples: Italy –&gt; wine, Germany –&gt; beer, Japan –&gt; sake. (Austria, Germany) –&gt; German, (Mexico, Spain) –&gt; Spanish, (Portugal, Brazil) –&gt; Portuguese. Let your creativity flourish.

``` r
filter_country <- filter(gapminder, country%in% c("Canada","China","United States"))
filter_country
```

    ## # A tibble: 36 x 6
    ##    country continent  year lifeExp      pop gdpPercap
    ##     <fctr>    <fctr> <int>   <dbl>    <int>     <dbl>
    ##  1  Canada  Americas  1952   68.75 14785584  11367.16
    ##  2  Canada  Americas  1957   69.96 17010154  12489.95
    ##  3  Canada  Americas  1962   71.30 18985849  13462.49
    ##  4  Canada  Americas  1967   72.13 20819767  16076.59
    ##  5  Canada  Americas  1972   72.88 22284500  18970.57
    ##  6  Canada  Americas  1977   74.21 23796400  22090.88
    ##  7  Canada  Americas  1982   75.76 25201900  22898.79
    ##  8  Canada  Americas  1987   76.86 26549700  26626.52
    ##  9  Canada  Americas  1992   77.95 28523502  26342.88
    ## 10  Canada  Americas  1997   78.61 30305843  28954.93
    ## # ... with 26 more rows
…
