…
### 5. Report the absolute and/or relative abundance of countries with low life expectancy over time by continent: 

Compute a mean of life expectancy worldwide. Then determine how many countries on each continent have a life expectancy less than the mean life expectancy, for each year.


```r
average_age <- mean(gapminder$lifeExp)
gapminder %>% 
  filter(lifeExp<average_age) %>%
    group_by(continent,year) %>% 
    summarize(No._countries_with_low_lifeExp=length(country))
```

```
## # A tibble: 40 x 3
## # Groups:   continent [?]
##    continent  year No._countries_with_low_lifeExp
##       <fctr> <int>                          <int>
##  1    Africa  1952                             52
##  2    Africa  1957                             52
##  3    Africa  1962                             51
##  4    Africa  1967                             50
##  5    Africa  1972                             50
##  6    Africa  1977                             49
##  7    Africa  1982                             43
##  8    Africa  1987                             39
##  9    Africa  1992                             38
## 10    Africa  1997                             39
## # ... with 30 more rows
```
…
