…
gap_coefs2 <- gap_coefs2 %>%
  mutate(term = recode(term,
                       `(Intercept)` = "intercept",
                       `I(year - 1950)` = "slope"))

gap_ests2 <- gap_coefs2 %>% 
  dplyr::select(continent:std.error) %>% 
  spread(key = term, value = estimate)

gap_ests2
```

    ## # A tibble: 280 x 5
    ##    continent      country  std.error intercept      slope
    ##  *    <fctr>       <fctr>      <dbl>     <dbl>      <dbl>
    ##  1    Africa      Algeria 0.02212707        NA 0.56927972
    ##  2    Africa      Algeria 0.75626904  42.23641         NA
    ##  3    Africa       Angola 0.02353200        NA 0.20933986
    ##  4    Africa       Angola 0.80428746  31.70797         NA
    ##  5    Africa        Benin 0.01964652        NA 0.33423287
    ##  6    Africa        Benin 0.67148763  38.92005         NA
    ##  7    Africa     Botswana 0.10222519        NA 0.06066853
    ##  8    Africa     Botswana 3.49389885  52.80778         NA
    ##  9    Africa Burkina Faso 0.03423728        NA 0.36397483
    ## 10    Africa Burkina Faso 1.17017721  33.95674         NA
    ## # ... with 270 more rows
…
